dinoPLCPU/transcript
# Reading pref.tcl
# OpenFile E:/program/cpu/dinoPLCPU/dinoPLCPU.mpf
# Loading project dinoPLCPU
# Compile of alu.v was successful.
# Compile of ctrl.v was successful.
# Compile of ctrl_encode_def.v was successful.
# Compile of dm.v was successful.
# Compile of EXT.v was successful.
# Compile of hazard.v was successful.
# Compile of im.v was successful.
# Compile of NPC.v was successful.
# Compile of PC.v was successful.
# Compile of pl_reg.v was successful.
# Compile of plcomp.v was successful.
# Compile of plcomp_tb.v was successful.
# Compile of PLCPU.v was successful.
# Compile of RF.v was successful.
# 14 compiles, 0 failed with no errors.
vsim -gui work.plcomp_tb
# vsim -gui work.plcomp_tb 
# Start time: 00:41:27 on May 20,2025
# Loading work.plcomp_tb
# Loading work.plcomp
# Loading work.PLCPU
# Loading work.ctrl
# Loading work.PC
# Loading work.NPC
# Loading work.EXT
# Loading work.RF
# Loading work.alu
# Loading work.pl_reg
# Loading work.Hazard_Detect
# Loading work.Forwarding
# Loading work.dm
# Loading work.im
run
# NPC: xxxxxxxx, NPCOp: 00000
# stall=0
# MEM_MemWrite:0 IF_ID_out:0000000000000000 ID_EX_out:0000000000000000000000000000000000000000000000000MEM_RD2:00000000 NPC: 00000004, NPCOp: 00000
# 
#  cycle=          1, IF_PC=00000000, IF_ins=123452b7, 
#  cycle=          2, IF_PC=00000000, IF_ins=123452b7, 
#  cycle=          3, IF_PC=00000000, IF_ins=123452b7, 
#  cycle=          4, IF_PC=00000000, IF_ins=123452b7, 
#  cycle=          5, IF_PC=00000000, IF_ins=123452b7, 
#  pc = 00000000: stall=0
# IF_ID_out:123452b700000000 NPC: 00000008, NPCOp: 00000
# 
#  cycle=          6, IF_PC=00000004, IF_ins=fffff337, 
#  pc = 00000004: stall=0
# ID_EX_out:048d14adc08028000000000000000091a28000d0500000000IF_ID_out:fffff33700000004 NPC: 0000000c, NPCOp: 00000
# 
#  cycle=          7, IF_PC=00000008, IF_ins=00400613, 
#  pc = 00000008: stall=0
# ID_EX_out:3ffffccdc080280000000000000007ffff8007fe600000004IF_ID_out:0040061300000008 NPC: 00000010, NPCOp: 00000
# 
#  cycle=          8, IF_PC=0000000c, IF_ins=00000013, 
#  pc = 0000000c: stall=0
# ID_EX_out:00100184c0806800000000000000000000002100c00000008IF_ID_out:000000130000000c NPC: 00000014, NPCOp: 00000
# x 5 = 12345000  
#  cycle=          9, IF_PC=00000010, IF_ins=00000013, x 5 = 12345000  
#  pc = 00000010: stall=0
# ID_EX_out:00000004c080680000000000000000000000000000000000cIF_ID_out:0000001300000010 NPC: 00000018, NPCOp: 00000
# x 6 = fffff000  
#  cycle=         10, IF_PC=00000014, IF_ins=006283b3, x 6 = fffff000  
#  pc = 00000014: stall=0
# ID_EX_out:00000004c0806800000000000000000000000000000000010IF_ID_out:006283b300000014 NPC: 0000001c, NPCOp: 00000
# x12 = 00000004  
#  cycle=         11, IF_PC=00000018, IF_ins=40628433, x12 = 00000004  
#  pc = 00000018: stall=0
# ID_EX_out:0018a0ecc0006fffff800091a28000000000018a700000014IF_ID_out:4062843300000018 NPC: 00000020, NPCOp: 00000
# 
#  cycle=         12, IF_PC=0000001c, IF_ins=0062c4b3, 
#  pc = 0000001c: stall=0
# ID_EX_out:1018a10cc0008fffff800091a28000000000018a800000018IF_ID_out:0062c4b30000001c MEM_RD2:fffff000 NPC: 00000024, NPCOp: 00000
# 
#  cycle=         13, IF_PC=00000020, IF_ins=0062e533, 
#  pc = 00000020: stall=0
# ID_EX_out:0018b12cc0018fffff800091a28000000000018a90000001cIF_ID_out:0062e53300000020 NPC: 00000028, NPCOp: 00000
# x 7 = 12344000  
#  cycle=         14, IF_PC=00000024, IF_ins=0062f5b3, x 7 = 12344000  
#  pc = 00000024: stall=0
# ID_EX_out:0018b94cc001afffff800091a28000000000018aa00000020IF_ID_out:0062f5b300000024 NPC: 0000002c, NPCOp: 00000
# x 8 = 12346000  
#  cycle=         15, IF_PC=00000028, IF_ins=00c356b3, x 8 = 12346000  
#  pc = 00000028: stall=0
# ID_EX_out:0018bd6cc001cfffff800091a28000000000018ab00000024IF_ID_out:00c356b300000028 NPC: 00000030, NPCOp: 00000
# x 9 = edcba000  
#  cycle=         16, IF_PC=0000002c, IF_ins=40c35733, x 9 = edcba000  
#  pc = 0000002c: stall=0
# ID_EX_out:0030d5acc0020800000027ffff8000000000030cd00000028IF_ID_out:40c357330000002c NPC: 00000034, NPCOp: 00000
# x10 = fffff000  
#  cycle=         17, IF_PC=00000030, IF_ins=00c297b3, x10 = fffff000  
#  pc = 00000030: stall=0
# ID_EX_out:1030d5ccc0022800000027ffff8000000000030ce0000002cIF_ID_out:00c297b300000030 MEM_RD2:00000004 NPC: 00000038, NPCOp: 00000
# x11 = 12345000  
#  cycle=         18, IF_PC=00000034, IF_ins=00a62023, x11 = 12345000  
#  pc = 00000034: stall=0
# ID_EX_out:0030a5ecc001e80000002091a28000000000030af00000030IF_ID_out:00a6202300000034 NPC: 0000003c, NPCOp: 00000
# x13 = 0fffff00  
#  cycle=         19, IF_PC=00000038, IF_ins=00b62223, x13 = 0fffff00  
#  pc = 00000038: stall=0
# ID_EX_out:00298808c08077ffff8000000000200000000298000000034IF_ID_out:00b6222300000038 NPC: 00000040, NPCOp: 00000
# x14 = ffffff00  
#  cycle=         20, IF_PC=0000003c, IF_ins=00062803, x14 = ffffff00  
#  pc = 0000003c: stall=0
# ID_EX_out:002d8888c0807091a280000000002000000022d8400000038IF_ID_out:000628030000003c MEM_RD2:fffff000 MEM_MemWrite:1 NPC: 00000044, NPCOp: 00000
# x15 = 23450000  
#  cycle=         21, IF_PC=00000040, IF_ins=00462883, x15 = 23450000  
#  pc = 00000040: stall=0
# ID_EX_out:00018a00e880680000000000000020000000001900000003cIF_ID_out:0046288300000040 MEM_RD2:12345000 NPC: 00000048, NPCOp: 00000
#  memaddr = 00000004, memdata = fffff000 
# 
#  cycle=         22, IF_PC=00000044, IF_ins=00000013, 
#  pc = 00000044: stall=0
# ID_EX_out:00118a20e8806800000000000000200000002119100000040IF_ID_out:0000001300000044 MEM_RD2:00000000 MEM_MemWrite:0 NPC: 0000004c, NPCOp: 00000
#  memaddr = 00000008, memdata = 12345000 
# 
#  cycle=         23, IF_PC=00000048, IF_ins=00000013, 
#  pc = 00000048: stall=0
# ID_EX_out:00000004c0806800000000000000000000000000000000044IF_ID_out:0000001300000048 NPC: 00000050, NPCOp: 00000
# x16 = fffff000  
#  cycle=         24, IF_PC=0000004c, IF_ins=00000013, x16 = fffff000  
#  pc = 0000004c: ID_EX_out:00000004c0806800000000000000000000000000000000048IF_ID_out:000000130000004c NPC: 00000054, NPCOp: 00000
# x17 = 12345000  
#  cycle=         25, IF_PC=00000050, IF_ins=01180933, x17 = 12345000  
#  pc = 00000050: stall=0
# ID_EX_out:00000004c080680000000000000000000000000000000004cIF_ID_out:0118093300000050 NPC: 00000058, NPCOp: 00000
# 
#  cycle=         26, IF_PC=00000054, IF_ins=xxxxxxxx, 
#  pc = 00000054: stall=0
# ID_EX_out:0046024cc0006891a28007ffff80000000000461200000050IF_ID_out:xxxxxxxx00000054 NPC: 0000005c, NPCOp: 00000
# 
#  cycle=         27, IF_PC=00000058, IF_ins=xxxxxxxx, 
#  pc = 00000058: NPC: 0000005c, NPCOp: 00xx0
# stall=0
# ID_EX_out:xxxxxxxxxXXxxxxxxxxxxxxxxxxxxX0000000Xxxx00000054IF_ID_out:xxxxxxxx00000058 MEM_RD2:12345000 NPC: 00000060, NPCOp: 00xx0
# NPC: 00000060, NPCOp: 00xxx
# 
#  cycle=         28, IF_PC=0000005c, IF_ins=xxxxxxxx, 
#  pc = 0000005c: ID_EX_out:xxxxxxxxxXXxxxxxxxxxxxxxxxxxxX0000000Xxxx00000058IF_ID_out:xxxxxxxx0000005c MEM_RD2:xxxxxxxx MEM_MemWrite:x NPC: 00000064, NPCOp: 00xxx
# x18 = 12344000  
#  cycle=         29, IF_PC=00000060, IF_ins=xxxxxxxx, x18 = 12344000  
#  pc = 00000060: ID_EX_out:xxxxxxxxxXXxxxxxxxxxxxxxxxxxxX0000000Xxxx0000005cIF_ID_out:xxxxxxxx00000060 NPC: 00000068, NPCOp: 00xxx
# 
#  cycle=         30, IF_PC=00000064, IF_ins=xxxxxxxx, 
#  pc = 00000064: ID_EX_out:xxxxxxxxxXXxxxxxxxxxxxxxxxxxxX0000000Xxxx00000060IF_ID_out:xxxxxxxx00000064 NPC: 0000006c, NPCOp: 00xxx
# 
#  cycle=         31, IF_PC=00000068, IF_ins=xxxxxxxx, 
#  pc = 00000068: ID_EX_out:xxxxxxxxxXXxxxxxxxxxxxxxxxxxxX0000000Xxxx00000064IF_ID_out:xxxxxxxx00000068 NPC: 00000070, NPCOp: 00xxx
# 
#  cycle=         32, IF_PC=0000006c, IF_ins=xxxxxxxx, 
#  pc = 0000006c: ID_EX_out:xxxxxxxxxXXxxxxxxxxxxxxxxxxxxX0000000Xxxx00000068IF_ID_out:xxxxxxxx0000006c NPC: 00000074, NPCOp: 00xxx
# 
#  cycle=         33, IF_PC=00000070, IF_ins=xxxxxxxx, 
#  pc = 00000070: ID_EX_out:xxxxxxxxxXXxxxxxxxxxxxxxxxxxxX0000000Xxxx0000006cIF_ID_out:xxxxxxxx00000070 NPC: 00000078, NPCOp: 00xxx
# 
#  cycle=         34, IF_PC=00000074, IF_ins=xxxxxxxx, 
#  pc = 00000074: ID_EX_out:xxxxxxxxxXXxxxxxxxxxxxxxxxxxxX0000000Xxxx00000070IF_ID_out:xxxxxxxx00000074 NPC: 0000007c, NPCOp: 00xxx
# 
#  cycle=         35, IF_PC=00000078, IF_ins=xxxxxxxx, 
#  pc = 00000078: ID_EX_out:xxxxxxxxxXXxxxxxxxxxxxxxxxxxxX0000000Xxxx00000074IF_ID_out:xxxxxxxx00000078 NPC: 00000080, NPCOp: 00xxx
# 
#  cycle=         36, IF_PC=0000007c, IF_ins=xxxxxxxx, 
#  pc = 0000007c: ID_EX_out:xxxxxxxxxXXxxxxxxxxxxxxxxxxxxX0000000Xxxx00000078IF_ID_out:xxxxxxxx0000007c NPC: 00000084, NPCOp: 00xxx
# 
#  cycle=         37, IF_PC=00000080, IF_ins=xxxxxxxx, 
#  pc = 00000080: ID_EX_out:xxxxxxxxxXXxxxxxxxxxxxxxxxxxxX0000000Xxxx0000007cIF_ID_out:xxxxxxxx00000080 NPC: 00000088, NPCOp: 00xxx
# 
#  cycle=         38, IF_PC=00000084, IF_ins=xxxxxxxx, 
#  pc = 00000084: ID_EX_out:xxxxxxxxxXXxxxxxxxxxxxxxxxxxxX0000000Xxxx00000080IF_ID_out:xxxxxxxx00000084 NPC: 0000008c, NPCOp: 00xxx
# 
#  cycle=         39, IF_PC=00000088, IF_ins=xxxxxxxx, 
#  pc = 00000088: ID_EX_out:xxxxxxxxxXXxxxxxxxxxxxxxxxxxxX0000000Xxxx00000084IF_ID_out:xxxxxxxx00000088 NPC: 00000090, NPCOp: 00xxx
# 
#  cycle=         40, IF_PC=0000008c, IF_ins=xxxxxxxx, 
#  pc = 0000008c: ID_EX_out:xxxxxxxxxXXxxxxxxxxxxxxxxxxxxX0000000Xxxx00000088IF_ID_out:xxxxxxxx0000008c NPC: 00000094, NPCOp: 00xxx
# 
#  cycle=         41, IF_PC=00000090, IF_ins=xxxxxxxx, 
#  pc = 00000090: ID_EX_out:xxxxxxxxxXXxxxxxxxxxxxxxxxxxxX0000000Xxxx0000008cIF_ID_out:xxxxxxxx00000090 NPC: 00000098, NPCOp: 00xxx
# 
#  cycle=         42, IF_PC=00000094, IF_ins=xxxxxxxx, 
#  pc = 00000094: ID_EX_out:xxxxxxxxxXXxxxxxxxxxxxxxxxxxxX0000000Xxxx00000090IF_ID_out:xxxxxxxx00000094 NPC: 0000009c, NPCOp: 00xxx
# 
#  cycle=         43, IF_PC=00000098, IF_ins=xxxxxxxx, 
#  pc = 00000098: ID_EX_out:xxxxxxxxxXXxxxxxxxxxxxxxxxxxxX0000000Xxxx00000094IF_ID_out:xxxxxxxx00000098 NPC: 000000a0, NPCOp: 00xxx
# 
#  cycle=         44, IF_PC=0000009c, IF_ins=xxxxxxxx, 
#  pc = 0000009c: ID_EX_out:xxxxxxxxxXXxxxxxxxxxxxxxxxxxxX0000000Xxxx00000098IF_ID_out:xxxxxxxx0000009c NPC: 000000a4, NPCOp: 00xxx
# 
#  cycle=         45, IF_PC=000000a0, IF_ins=xxxxxxxx, 
#  pc = 000000a0: ID_EX_out:xxxxxxxxxXXxxxxxxxxxxxxxxxxxxX0000000Xxxx0000009cIF_ID_out:xxxxxxxx000000a0 NPC: 000000a8, NPCOp: 00xxx
# 
#  cycle=         46, IF_PC=000000a4, IF_ins=xxxxxxxx, 
#  pc = 000000a4: ID_EX_out:xxxxxxxxxXXxxxxxxxxxxxxxxxxxxX0000000Xxxx000000a0IF_ID_out:xxxxxxxx000000a4 NPC: 000000ac, NPCOp: 00xxx
# 
#  cycle=         47, IF_PC=000000a8, IF_ins=xxxxxxxx, 
#  pc = 000000a8: ID_EX_out:xxxxxxxxxXXxxxxxxxxxxxxxxxxxxX0000000Xxxx000000a4IF_ID_out:xxxxxxxx000000a8 NPC: 000000b0, NPCOp: 00xxx
# 
#  cycle=         48, IF_PC=000000ac, IF_ins=xxxxxxxx, 
#  pc = 000000ac: ID_EX_out:xxxxxxxxxXXxxxxxxxxxxxxxxxxxxX0000000Xxxx000000a8IF_ID_out:xxxxxxxx000000ac NPC: 000000b4, NPCOp: 00xxx
# 
#  cycle=         49, IF_PC=000000b0, IF_ins=xxxxxxxx, 
#  pc = 000000b0: ID_EX_out:xxxxxxxxxXXxxxxxxxxxxxxxxxxxxX0000000Xxxx000000acIF_ID_out:xxxxxxxx000000b0 NPC: 000000b8, NPCOp: 00xxx
# 
#  cycle=         50, IF_PC=000000b4, IF_ins=xxxxxxxx, 
#  pc = 000000b4: ID_EX_out:xxxxxxxxxXXxxxxxxxxxxxxxxxxxxX0000000Xxxx000000b0IF_ID_out:xxxxxxxx000000b4 NPC: 000000bc, NPCOp: 00xxx
# 
#  cycle=         51, IF_PC=000000b8, IF_ins=xxxxxxxx, 
#  pc = 000000b8: ID_EX_out:xxxxxxxxxXXxxxxxxxxxxxxxxxxxxX0000000Xxxx000000b4IF_ID_out:xxxxxxxx000000b8 NPC: 000000c0, NPCOp: 00xxx
# 
#  cycle=         52, IF_PC=000000bc, IF_ins=xxxxxxxx, 
#  pc = 000000bc: ID_EX_out:xxxxxxxxxXXxxxxxxxxxxxxxxxxxxX0000000Xxxx000000b8IF_ID_out:xxxxxxxx000000bc NPC: 000000c4, NPCOp: 00xxx
# 
#  cycle=         53, IF_PC=000000c0, IF_ins=xxxxxxxx, 
#  pc = 000000c0: ID_EX_out:xxxxxxxxxXXxxxxxxxxxxxxxxxxxxX0000000Xxxx000000bcIF_ID_out:xxxxxxxx000000c0 NPC: 000000c8, NPCOp: 00xxx
# 
#  cycle=         54, IF_PC=000000c4, IF_ins=xxxxxxxx, 
#  pc = 000000c4: ID_EX_out:xxxxxxxxxXXxxxxxxxxxxxxxxxxxxX0000000Xxxx000000c0IF_ID_out:xxxxxxxx000000c4 NPC: 000000cc, NPCOp: 00xxx
# 
#  cycle=         55, IF_PC=000000c8, IF_ins=xxxxxxxx, 
#  pc = 000000c8: ID_EX_out:xxxxxxxxxXXxxxxxxxxxxxxxxxxxxX0000000Xxxx000000c4IF_ID_out:xxxxxxxx000000c8 NPC: 000000d0, NPCOp: 00xxx
# 
#  cycle=         56, IF_PC=000000cc, IF_ins=xxxxxxxx, 
#  pc = 000000cc: ID_EX_out:xxxxxxxxxXXxxxxxxxxxxxxxxxxxxX0000000Xxxx000000c8IF_ID_out:xxxxxxxx000000cc NPC: 000000d4, NPCOp: 00xxx
# 
#  cycle=         57, IF_PC=000000d0, IF_ins=xxxxxxxx, 
#  pc = 000000d0: ID_EX_out:xxxxxxxxxXXxxxxxxxxxxxxxxxxxxX0000000Xxxx000000ccIF_ID_out:xxxxxxxx000000d0 NPC: 000000d8, NPCOp: 00xxx
# 
#  cycle=         58, IF_PC=000000d4, IF_ins=xxxxxxxx, 
#  pc = 000000d4: ID_EX_out:xxxxxxxxxXXxxxxxxxxxxxxxxxxxxX0000000Xxxx000000d0IF_ID_out:xxxxxxxx000000d4 NPC: 000000dc, NPCOp: 00xxx
# 
#  cycle=         59, IF_PC=000000d8, IF_ins=xxxxxxxx, 
#  pc = 000000d8: ID_EX_out:xxxxxxxxxXXxxxxxxxxxxxxxxxxxxX0000000Xxxx000000d4IF_ID_out:xxxxxxxx000000d8 NPC: 000000e0, NPCOp: 00xxx
# 
#  cycle=         60, IF_PC=000000dc, IF_ins=xxxxxxxx, 
#  pc = 000000dc: ID_EX_out:xxxxxxxxxXXxxxxxxxxxxxxxxxxxxX0000000Xxxx000000d8IF_ID_out:xxxxxxxx000000dc NPC: 000000e4, NPCOp: 00xxx
# 
#  cycle=         61, IF_PC=000000e0, IF_ins=xxxxxxxx, 
#  pc = 000000e0: ID_EX_out:xxxxxxxxxXXxxxxxxxxxxxxxxxxxxX0000000Xxxx000000dcIF_ID_out:xxxxxxxx000000e0 NPC: 000000e8, NPCOp: 00xxx
# 
#  cycle=         62, IF_PC=000000e4, IF_ins=xxxxxxxx, 
#  pc = 000000e4: ID_EX_out:xxxxxxxxxXXxxxxxxxxxxxxxxxxxxX0000000Xxxx000000e0IF_ID_out:xxxxxxxx000000e4 NPC: 000000ec, NPCOp: 00xxx
# 
#  cycle=         63, IF_PC=000000e8, IF_ins=xxxxxxxx, 
#  pc = 000000e8: ID_EX_out:xxxxxxxxxXXxxxxxxxxxxxxxxxxxxX0000000Xxxx000000e4IF_ID_out:xxxxxxxx000000e8 NPC: 000000f0, NPCOp: 00xxx
# 
#  cycle=         64, IF_PC=000000ec, IF_ins=xxxxxxxx, 
#  pc = 000000ec: ID_EX_out:xxxxxxxxxXXxxxxxxxxxxxxxxxxxxX0000000Xxxx000000e8IF_ID_out:xxxxxxxx000000ec NPC: 000000f4, NPCOp: 00xxx
# 
#  cycle=         65, IF_PC=000000f0, IF_ins=xxxxxxxx, 
#  pc = 000000f0: ID_EX_out:xxxxxxxxxXXxxxxxxxxxxxxxxxxxxX0000000Xxxx000000ecIF_ID_out:xxxxxxxx000000f0 NPC: 000000f8, NPCOp: 00xxx
# 
#  cycle=         66, IF_PC=000000f4, IF_ins=xxxxxxxx, 
#  pc = 000000f4: ID_EX_out:xxxxxxxxxXXxxxxxxxxxxxxxxxxxxX0000000Xxxx000000f0IF_ID_out:xxxxxxxx000000f4 NPC: 000000fc, NPCOp: 00xxx
# 
#  cycle=         67, IF_PC=000000f8, IF_ins=xxxxxxxx, 
#  pc = 000000f8: ID_EX_out:xxxxxxxxxXXxxxxxxxxxxxxxxxxxxX0000000Xxxx000000f4IF_ID_out:xxxxxxxx000000f8 NPC: 00000100, NPCOp: 00xxx
# 
#  cycle=         68, IF_PC=000000fc, IF_ins=xxxxxxxx, 
#  pc = 000000fc: ID_EX_out:xxxxxxxxxXXxxxxxxxxxxxxxxxxxxX0000000Xxxx000000f8IF_ID_out:xxxxxxxx000000fc NPC: 00000104, NPCOp: 00xxx
# 
#  cycle=         69, IF_PC=00000100, IF_ins=xxxxxxxx, 
#  pc = 00000100: ID_EX_out:xxxxxxxxxXXxxxxxxxxxxxxxxxxxxX0000000Xxxx000000fcIF_ID_out:xxxxxxxx00000100 NPC: 00000108, NPCOp: 00xxx
# 
#  cycle=         70, IF_PC=00000104, IF_ins=xxxxxxxx, 
#  pc = 00000104: ID_EX_out:xxxxxxxxxXXxxxxxxxxxxxxxxxxxxX0000000Xxxx00000100IF_ID_out:xxxxxxxx00000104 NPC: 0000010c, NPCOp: 00xxx
# 
#  cycle=         71, IF_PC=00000108, IF_ins=xxxxxxxx, 
#  pc = 00000108: ID_EX_out:xxxxxxxxxXXxxxxxxxxxxxxxxxxxxX0000000Xxxx00000104IF_ID_out:xxxxxxxx00000108 NPC: 00000110, NPCOp: 00xxx
# 
#  cycle=         72, IF_PC=0000010c, IF_ins=xxxxxxxx, 
#  pc = 0000010c: ID_EX_out:xxxxxxxxxXXxxxxxxxxxxxxxxxxxxX0000000Xxxx00000108IF_ID_out:xxxxxxxx0000010c NPC: 00000114, NPCOp: 00xxx
# 
#  cycle=         73, IF_PC=00000110, IF_ins=xxxxxxxx, 
#  pc = 00000110: ID_EX_out:xxxxxxxxxXXxxxxxxxxxxxxxxxxxxX0000000Xxxx0000010cIF_ID_out:xxxxxxxx00000110 NPC: 00000118, NPCOp: 00xxx
# 
#  cycle=         74, IF_PC=00000114, IF_ins=xxxxxxxx, 
#  pc = 00000114: ID_EX_out:xxxxxxxxxXXxxxxxxxxxxxxxxxxxxX0000000Xxxx00000110IF_ID_out:xxxxxxxx00000114 NPC: 0000011c, NPCOp: 00xxx
# 
#  cycle=         75, IF_PC=00000118, IF_ins=xxxxxxxx, 
#  pc = 00000118: ID_EX_out:xxxxxxxxxXXxxxxxxxxxxxxxxxxxxX0000000Xxxx00000114IF_ID_out:xxxxxxxx00000118 NPC: 00000120, NPCOp: 00xxx
# 
#  cycle=         76, IF_PC=0000011c, IF_ins=xxxxxxxx, 
#  pc = 0000011c: ID_EX_out:xxxxxxxxxXXxxxxxxxxxxxxxxxxxxX0000000Xxxx00000118IF_ID_out:xxxxxxxx0000011c NPC: 00000124, NPCOp: 00xxx
# 
#  cycle=         77, IF_PC=00000120, IF_ins=xxxxxxxx, 
#  pc = 00000120: ID_EX_out:xxxxxxxxxXXxxxxxxxxxxxxxxxxxxX0000000Xxxx0000011cIF_ID_out:xxxxxxxx00000120 NPC: 00000128, NPCOp: 00xxx
# 
#  cycle=         78, IF_PC=00000124, IF_ins=xxxxxxxx, 
#  pc = 00000124: ID_EX_out:xxxxxxxxxXXxxxxxxxxxxxxxxxxxxX0000000Xxxx00000120IF_ID_out:xxxxxxxx00000124 NPC: 0000012c, NPCOp: 00xxx
# 
#  cycle=         79, IF_PC=00000128, IF_ins=xxxxxxxx, 
#  pc = 00000128: ID_EX_out:xxxxxxxxxXXxxxxxxxxxxxxxxxxxxX0000000Xxxx00000124IF_ID_out:xxxxxxxx00000128 NPC: 00000130, NPCOp: 00xxx
# 
#  cycle=         80, IF_PC=0000012c, IF_ins=xxxxxxxx, 
#  pc = 0000012c: ID_EX_out:xxxxxxxxxXXxxxxxxxxxxxxxxxxxxX0000000Xxxx00000128IF_ID_out:xxxxxxxx0000012c NPC: 00000134, NPCOp: 00xxx
# 
#  cycle=         81, IF_PC=00000130, IF_ins=xxxxxxxx, 
#  pc = 00000130: ID_EX_out:xxxxxxxxxXXxxxxxxxxxxxxxxxxxxX0000000Xxxx0000012cIF_ID_out:xxxxxxxx00000130 NPC: 00000138, NPCOp: 00xxx
# 
#  cycle=         82, IF_PC=00000134, IF_ins=xxxxxxxx, 
#  pc = 00000134: ID_EX_out:xxxxxxxxxXXxxxxxxxxxxxxxxxxxxX0000000Xxxx00000130IF_ID_out:xxxxxxxx00000134 NPC: 0000013c, NPCOp: 00xxx
# 
#  cycle=         83, IF_PC=00000138, IF_ins=xxxxxxxx, 
#  pc = 00000138: ID_EX_out:xxxxxxxxxXXxxxxxxxxxxxxxxxxxxX0000000Xxxx00000134IF_ID_out:xxxxxxxx00000138 NPC: 00000140, NPCOp: 00xxx
# 
#  cycle=         84, IF_PC=0000013c, IF_ins=xxxxxxxx, 
#  pc = 0000013c: ID_EX_out:xxxxxxxxxXXxxxxxxxxxxxxxxxxxxX0000000Xxxx00000138IF_ID_out:xxxxxxxx0000013c NPC: 00000144, NPCOp: 00xxx
# 
#  cycle=         85, IF_PC=00000140, IF_ins=xxxxxxxx, 
#  pc = 00000140: ID_EX_out:xxxxxxxxxXXxxxxxxxxxxxxxxxxxxX0000000Xxxx0000013cIF_ID_out:xxxxxxxx00000140 NPC: 00000148, NPCOp: 00xxx
# 
#  cycle=         86, IF_PC=00000144, IF_ins=xxxxxxxx, 
#  pc = 00000144: ID_EX_out:xxxxxxxxxXXxxxxxxxxxxxxxxxxxxX0000000Xxxx00000140IF_ID_out:xxxxxxxx00000144 NPC: 0000014c, NPCOp: 00xxx
# 
#  cycle=         87, IF_PC=00000148, IF_ins=xxxxxxxx, 
#  pc = 00000148: ID_EX_out:xxxxxxxxxXXxxxxxxxxxxxxxxxxxxX0000000Xxxx00000144IF_ID_out:xxxxxxxx00000148 NPC: 00000150, NPCOp: 00xxx
# 
#  cycle=         88, IF_PC=0000014c, IF_ins=xxxxxxxx, 
#  pc = 0000014c: ID_EX_out:xxxxxxxxxXXxxxxxxxxxxxxxxxxxxX0000000Xxxx00000148IF_ID_out:xxxxxxxx0000014c NPC: 00000154, NPCOp: 00xxx
# 
#  cycle=         89, IF_PC=00000150, IF_ins=xxxxxxxx, 
#  pc = 00000150: ID_EX_out:xxxxxxxxxXXxxxxxxxxxxxxxxxxxxX0000000Xxxx0000014cIF_ID_out:xxxxxxxx00000150 NPC: 00000158, NPCOp: 00xxx
# 
#  cycle=         90, IF_PC=00000154, IF_ins=xxxxxxxx, 
#  pc = 00000154: ID_EX_out:xxxxxxxxxXXxxxxxxxxxxxxxxxxxxX0000000Xxxx00000150IF_ID_out:xxxxxxxx00000154 NPC: 0000015c, NPCOp: 00xxx
# 
#  cycle=         91, IF_PC=00000158, IF_ins=xxxxxxxx, 
#  pc = 00000158: ID_EX_out:xxxxxxxxxXXxxxxxxxxxxxxxxxxxxX0000000Xxxx00000154IF_ID_out:xxxxxxxx00000158 NPC: 00000160, NPCOp: 00xxx
# 
#  cycle=         92, IF_PC=0000015c, IF_ins=xxxxxxxx, 
#  pc = 0000015c: ID_EX_out:xxxxxxxxxXXxxxxxxxxxxxxxxxxxxX0000000Xxxx00000158IF_ID_out:xxxxxxxx0000015c NPC: 00000164, NPCOp: 00xxx
# 
#  cycle=         93, IF_PC=00000160, IF_ins=xxxxxxxx, 
#  pc = 00000160: ID_EX_out:xxxxxxxxxXXxxxxxxxxxxxxxxxxxxX0000000Xxxx0000015cIF_ID_out:xxxxxxxx00000160 NPC: 00000168, NPCOp: 00xxx
# 
#  cycle=         94, IF_PC=00000164, IF_ins=xxxxxxxx, 
#  pc = 00000164: ID_EX_out:xxxxxxxxxXXxxxxxxxxxxxxxxxxxxX0000000Xxxx00000160IF_ID_out:xxxxxxxx00000164 NPC: 0000016c, NPCOp: 00xxx
# 
#  cycle=         95, IF_PC=00000168, IF_ins=xxxxxxxx, 
#  pc = 00000168: ID_EX_out:xxxxxxxxxXXxxxxxxxxxxxxxxxxxxX0000000Xxxx00000164IF_ID_out:xxxxxxxx00000168 NPC: 00000170, NPCOp: 00xxx
# 
#  cycle=         96, IF_PC=0000016c, IF_ins=xxxxxxxx, 
#  pc = 0000016c: ID_EX_out:xxxxxxxxxXXxxxxxxxxxxxxxxxxxxX0000000Xxxx00000168IF_ID_out:xxxxxxxx0000016c NPC: 00000174, NPCOp: 00xxx
# 
#  cycle=         97, IF_PC=00000170, IF_ins=xxxxxxxx, 
#  pc = 00000170: ID_EX_out:xxxxxxxxxXXxxxxxxxxxxxxxxxxxxX0000000Xxxx0000016cIF_ID_out:xxxxxxxx00000170 NPC: 00000178, NPCOp: 00xxx
# 
#  cycle=         98, IF_PC=00000174, IF_ins=xxxxxxxx, 
#  pc = 00000174: ID_EX_out:xxxxxxxxxXXxxxxxxxxxxxxxxxxxxX0000000Xxxx00000170IF_ID_out:xxxxxxxx00000174 NPC: 0000017c, NPCOp: 00xxx
# 
#  cycle=         99, IF_PC=00000178, IF_ins=xxxxxxxx, 
#  pc = 00000178: ID_EX_out:xxxxxxxxxXXxxxxxxxxxxxxxxxxxxX0000000Xxxx00000174IF_ID_out:xxxxxxxx00000178 NPC: 00000180, NPCOp: 00xxx
# 
#  cycle=        100, IF_PC=0000017c, IF_ins=xxxxxxxx, 
#  pc = 0000017c: ID_EX_out:xxxxxxxxxXXxxxxxxxxxxxxxxxxxxX0000000Xxxx00000178IF_ID_out:xxxxxxxx0000017c NPC: 00000184, NPCOp: 00xxx
# 
#  cycle=        101, IF_PC=00000180, IF_ins=xxxxxxxx, 
#  pc = 00000180: ID_EX_out:xxxxxxxxxXXxxxxxxxxxxxxxxxxxxX0000000Xxxx0000017cIF_ID_out:xxxxxxxx00000180 NPC: 00000188, NPCOp: 00xxx
# 
#  cycle=        102, IF_PC=00000184, IF_ins=xxxxxxxx, 
#  pc = 00000184: ID_EX_out:xxxxxxxxxXXxxxxxxxxxxxxxxxxxxX0000000Xxxx00000180IF_ID_out:xxxxxxxx00000184 NPC: 0000018c, NPCOp: 00xxx
# 
#  cycle=        103, IF_PC=00000188, IF_ins=xxxxxxxx, 
#  pc = 00000188: ID_EX_out:xxxxxxxxxXXxxxxxxxxxxxxxxxxxxX0000000Xxxx00000184IF_ID_out:xxxxxxxx00000188 NPC: 00000190, NPCOp: 00xxx
# 
#  cycle=        104, IF_PC=0000018c, IF_ins=xxxxxxxx, 
#  pc = 0000018c: ID_EX_out:xxxxxxxxxXXxxxxxxxxxxxxxxxxxxX0000000Xxxx00000188IF_ID_out:xxxxxxxx0000018c NPC: 00000194, NPCOp: 00xxx
# 
#  cycle=        105, IF_PC=00000190, IF_ins=xxxxxxxx, 
#  pc = 00000190: ID_EX_out:xxxxxxxxxXXxxxxxxxxxxxxxxxxxxX0000000Xxxx0000018cIF_ID_out:xxxxxxxx00000190 NPC: 00000198, NPCOp: 00xxx
# 
#  cycle=        106, IF_PC=00000194, IF_ins=xxxxxxxx, 
